{
  "project_info": {
    "project_number": "168987552356",
    "firebase_url": "https://magna-media.firebaseio.com",
    "project_id": "magna-media",
    "storage_bucket": "magna-media.appspot.com"
  },
  "client": [
    {
      "client_info": {
        "mobilesdk_app_id": "1:168987552356:android:2872ae0eccb24d14f0cd71",
        "android_client_info": {
          "package_name": "cc.maids.app"
        }
      },
      "oauth_client": [
        {
          "client_id": "168987552356-7o3fm1icuosehuqctlegulq6fv1sm90c.apps.googleusercontent.com",
          "client_type": 1,
          "android_info": {
            "package_name": "cc.maids.app",
            "certificate_hash": "ae340f868586d821f75ef04efdd126fb8aee6ca9"
          }
        },
        {
          "client_id": "168987552356-t0r6p3if6kiffqli05535j09kir69545.apps.googleusercontent.com",
          "client_type": 1,
          "android_info": {
            "package_name": "cc.maids.app",
            "certificate_hash": "cecb8a0b8ff516804fd3cf1aa9285e7f4a879f9f"
          }
        },
        {
          "client_id": "168987552356-okdp43vuu56c56chenaaoob83791e24u.apps.googleusercontent.com",
          "client_type": 3
        }
      ],
      "api_key": [
        {
          "current_key": "AIzaSyDgo1UKaFJnh3aPwZAVVLeX4JrD5RHtwS8"
        }
      ],
      "services": {
        "appinvite_service": {
          "other_platform_oauth_client": [
            {
              "client_id": "168987552356-okdp43vuu56c56chenaaoob83791e24u.apps.googleusercontent.com",
              "client_type": 3
            },
            {
              "client_id": "168987552356-2l4gh8u9jdmr2l590i8ddqbo2avsq9lr.apps.googleusercontent.com",
              "client_type": 2,
              "ios_info": {
                "bundle_id": "com.apps.freshchattest"
              }
            }
          ]
        }
      }
    },
    {
      "client_info": {
        "mobilesdk_app_id": "1:168987552356:android:f94a648cf3521316f0cd71",
        "android_client_info": {
          "package_name": "cc.maids.yaya_app"
        }
      },
      "oauth_client": [
        {
          "client_id": "168987552356-okdp43vuu56c56chenaaoob83791e24u.apps.googleusercontent.com",
          "client_type": 3
        }
      ],
      "api_key": [
        {
          "current_key": "AIzaSyDgo1UKaFJnh3aPwZAVVLeX4JrD5RHtwS8"
        }
      ],
      "services": {
        "appinvite_service": {
          "other_platform_oauth_client": [
            {
              "client_id": "168987552356-okdp43vuu56c56chenaaoob83791e24u.apps.googleusercontent.com",
              "client_type": 3
            },
            {
              "client_id": "168987552356-2l4gh8u9jdmr2l590i8ddqbo2avsq9lr.apps.googleusercontent.com",
              "client_type": 2,
              "ios_info": {
                "bundle_id": "com.apps.freshchattest"
              }
            }
          ]
        }
      }
    },
    {
      "client_info": {
        "mobilesdk_app_id": "1:168987552356:android:85cc9baa31603c47f0cd71",
        "android_client_info": {
          "package_name": "com.apps.freshchattest"
        }
      },
      "oauth_client": [
        {
          "client_id": "168987552356-okdp43vuu56c56chenaaoob83791e24u.apps.googleusercontent.com",
          "client_type": 3
        }
      ],
      "api_key": [
        {
          "current_key": "AIzaSyDgo1UKaFJnh3aPwZAVVLeX4JrD5RHtwS8"
        }
      ],
      "services": {
        "appinvite_service": {
          "other_platform_oauth_client": [
            {
              "client_id": "168987552356-okdp43vuu56c56chenaaoob83791e24u.apps.googleusercontent.com",
              "client_type": 3
            },
            {
              "client_id": "168987552356-2l4gh8u9jdmr2l590i8ddqbo2avsq9lr.apps.googleusercontent.com",
              "client_type": 2,
              "ios_info": {
                "bundle_id": "com.apps.freshchattest"
              }
            }
          ]
        }
      }
    },
    {
      "client_info": {
        "mobilesdk_app_id": "1:168987552356:android:7b82a1be59f25accf0cd71",
        "android_client_info": {
          "package_name": "maids.cc.app"
        }
      },
      "oauth_client": [
        {
          "client_id": "168987552356-okdp43vuu56c56chenaaoob83791e24u.apps.googleusercontent.com",
          "client_type": 3
        }
      ],
      "api_key": [
        {
          "current_key": "AIzaSyDgo1UKaFJnh3aPwZAVVLeX4JrD5RHtwS8"
        }
      ],
      "services": {
        "appinvite_service": {
          "other_platform_oauth_client": [
            {
              "client_id": "168987552356-okdp43vuu56c56chenaaoob83791e24u.apps.googleusercontent.com",
              "client_type": 3
            },
            {
              "client_id": "168987552356-2l4gh8u9jdmr2l590i8ddqbo2avsq9lr.apps.googleusercontent.com",
              "client_type": 2,
              "ios_info": {
                "bundle_id": "com.apps.freshchattest"
              }
            }
          ]
        }
      }
    }
  ],
  "configuration_version": "1"
}